// Jest Snapshot v1, https://goo.gl/fbAQLP

exports[`should render a default page with default style 1`] = `
ShallowWrapper {
  "length": 1,
  Symbol(enzyme.__root__): [Circular],
  Symbol(enzyme.__unrendered__): <DefaultPage
    color="dark"
  />,
  Symbol(enzyme.__renderer__): Object {
    "batchedUpdates": [Function],
    "getNode": [Function],
    "render": [Function],
    "simulateEvent": [Function],
    "unmount": [Function],
  },
  Symbol(enzyme.__node__): Object {
    "instance": null,
    "key": undefined,
    "nodeType": "class",
    "props": Object {
      "children": <div>
        <styled.h1>
          Esta página não é um requisito funcional para o teste, foi desenvolvida apenas para demonstrar a implementação do react-router-dom
        </styled.h1>
        <styled.div>
          <img
            alt="Gif jovem concordando"
            src="https://www.worldofbuzz.com/wp-content/uploads/2018/04/cant-tell-if-youre-eating-fresh-sashimi-heres-how-world-of-buzz-2.gif"
          />
        </styled.div>
      </div>,
    },
    "ref": null,
    "rendered": Object {
      "instance": null,
      "key": undefined,
      "nodeType": "host",
      "props": Object {
        "children": Array [
          <styled.h1>
            Esta página não é um requisito funcional para o teste, foi desenvolvida apenas para demonstrar a implementação do react-router-dom
          </styled.h1>,
          <styled.div>
            <img
              alt="Gif jovem concordando"
              src="https://www.worldofbuzz.com/wp-content/uploads/2018/04/cant-tell-if-youre-eating-fresh-sashimi-heres-how-world-of-buzz-2.gif"
            />
          </styled.div>,
        ],
      },
      "ref": null,
      "rendered": Array [
        Object {
          "instance": null,
          "key": undefined,
          "nodeType": "class",
          "props": Object {
            "children": "Esta página não é um requisito funcional para o teste, foi desenvolvida apenas para demonstrar a implementação do react-router-dom",
          },
          "ref": null,
          "rendered": "Esta página não é um requisito funcional para o teste, foi desenvolvida apenas para demonstrar a implementação do react-router-dom",
          "type": [Function],
        },
        Object {
          "instance": null,
          "key": undefined,
          "nodeType": "class",
          "props": Object {
            "children": <img
              alt="Gif jovem concordando"
              src="https://www.worldofbuzz.com/wp-content/uploads/2018/04/cant-tell-if-youre-eating-fresh-sashimi-heres-how-world-of-buzz-2.gif"
            />,
          },
          "ref": null,
          "rendered": Object {
            "instance": null,
            "key": undefined,
            "nodeType": "host",
            "props": Object {
              "alt": "Gif jovem concordando",
              "src": "https://www.worldofbuzz.com/wp-content/uploads/2018/04/cant-tell-if-youre-eating-fresh-sashimi-heres-how-world-of-buzz-2.gif",
            },
            "ref": null,
            "rendered": null,
            "type": "img",
          },
          "type": [Function],
        },
      ],
      "type": "div",
    },
    "type": [Function],
  },
  Symbol(enzyme.__nodes__): Array [
    Object {
      "instance": null,
      "key": undefined,
      "nodeType": "class",
      "props": Object {
        "children": <div>
          <styled.h1>
            Esta página não é um requisito funcional para o teste, foi desenvolvida apenas para demonstrar a implementação do react-router-dom
          </styled.h1>
          <styled.div>
            <img
              alt="Gif jovem concordando"
              src="https://www.worldofbuzz.com/wp-content/uploads/2018/04/cant-tell-if-youre-eating-fresh-sashimi-heres-how-world-of-buzz-2.gif"
            />
          </styled.div>
        </div>,
      },
      "ref": null,
      "rendered": Object {
        "instance": null,
        "key": undefined,
        "nodeType": "host",
        "props": Object {
          "children": Array [
            <styled.h1>
              Esta página não é um requisito funcional para o teste, foi desenvolvida apenas para demonstrar a implementação do react-router-dom
            </styled.h1>,
            <styled.div>
              <img
                alt="Gif jovem concordando"
                src="https://www.worldofbuzz.com/wp-content/uploads/2018/04/cant-tell-if-youre-eating-fresh-sashimi-heres-how-world-of-buzz-2.gif"
              />
            </styled.div>,
          ],
        },
        "ref": null,
        "rendered": Array [
          Object {
            "instance": null,
            "key": undefined,
            "nodeType": "class",
            "props": Object {
              "children": "Esta página não é um requisito funcional para o teste, foi desenvolvida apenas para demonstrar a implementação do react-router-dom",
            },
            "ref": null,
            "rendered": "Esta página não é um requisito funcional para o teste, foi desenvolvida apenas para demonstrar a implementação do react-router-dom",
            "type": [Function],
          },
          Object {
            "instance": null,
            "key": undefined,
            "nodeType": "class",
            "props": Object {
              "children": <img
                alt="Gif jovem concordando"
                src="https://www.worldofbuzz.com/wp-content/uploads/2018/04/cant-tell-if-youre-eating-fresh-sashimi-heres-how-world-of-buzz-2.gif"
              />,
            },
            "ref": null,
            "rendered": Object {
              "instance": null,
              "key": undefined,
              "nodeType": "host",
              "props": Object {
                "alt": "Gif jovem concordando",
                "src": "https://www.worldofbuzz.com/wp-content/uploads/2018/04/cant-tell-if-youre-eating-fresh-sashimi-heres-how-world-of-buzz-2.gif",
              },
              "ref": null,
              "rendered": null,
              "type": "img",
            },
            "type": [Function],
          },
        ],
        "type": "div",
      },
      "type": [Function],
    },
  ],
  Symbol(enzyme.__options__): Object {
    "adapter": ReactSixteenAdapter {
      "options": Object {
        "enableComponentDidUpdateOnSetState": true,
      },
    },
    "context": Object {
      "__styled-components__": [Function],
      "__styled-components__next__": Object {
        "getTheme": [Function],
        "subscribe": [Function],
        "unsubscribe": [Function],
      },
    },
  },
}
`;

exports[`should render a default page with default style 2`] = `
ShallowWrapper {
  "length": 1,
  Symbol(enzyme.__root__): [Circular],
  Symbol(enzyme.__unrendered__): <DefaultPage
    color="default"
  />,
  Symbol(enzyme.__renderer__): Object {
    "batchedUpdates": [Function],
    "getNode": [Function],
    "render": [Function],
    "simulateEvent": [Function],
    "unmount": [Function],
  },
  Symbol(enzyme.__node__): Object {
    "instance": null,
    "key": undefined,
    "nodeType": "class",
    "props": Object {
      "children": <div>
        <styled.h1>
          Esta página não é um requisito funcional para o teste, foi desenvolvida apenas para demonstrar a implementação do react-router-dom
        </styled.h1>
        <styled.div>
          <img
            alt="Gif jovem concordando"
            src="https://www.worldofbuzz.com/wp-content/uploads/2018/04/cant-tell-if-youre-eating-fresh-sashimi-heres-how-world-of-buzz-2.gif"
          />
        </styled.div>
      </div>,
    },
    "ref": null,
    "rendered": Object {
      "instance": null,
      "key": undefined,
      "nodeType": "host",
      "props": Object {
        "children": Array [
          <styled.h1>
            Esta página não é um requisito funcional para o teste, foi desenvolvida apenas para demonstrar a implementação do react-router-dom
          </styled.h1>,
          <styled.div>
            <img
              alt="Gif jovem concordando"
              src="https://www.worldofbuzz.com/wp-content/uploads/2018/04/cant-tell-if-youre-eating-fresh-sashimi-heres-how-world-of-buzz-2.gif"
            />
          </styled.div>,
        ],
      },
      "ref": null,
      "rendered": Array [
        Object {
          "instance": null,
          "key": undefined,
          "nodeType": "class",
          "props": Object {
            "children": "Esta página não é um requisito funcional para o teste, foi desenvolvida apenas para demonstrar a implementação do react-router-dom",
          },
          "ref": null,
          "rendered": "Esta página não é um requisito funcional para o teste, foi desenvolvida apenas para demonstrar a implementação do react-router-dom",
          "type": [Function],
        },
        Object {
          "instance": null,
          "key": undefined,
          "nodeType": "class",
          "props": Object {
            "children": <img
              alt="Gif jovem concordando"
              src="https://www.worldofbuzz.com/wp-content/uploads/2018/04/cant-tell-if-youre-eating-fresh-sashimi-heres-how-world-of-buzz-2.gif"
            />,
          },
          "ref": null,
          "rendered": Object {
            "instance": null,
            "key": undefined,
            "nodeType": "host",
            "props": Object {
              "alt": "Gif jovem concordando",
              "src": "https://www.worldofbuzz.com/wp-content/uploads/2018/04/cant-tell-if-youre-eating-fresh-sashimi-heres-how-world-of-buzz-2.gif",
            },
            "ref": null,
            "rendered": null,
            "type": "img",
          },
          "type": [Function],
        },
      ],
      "type": "div",
    },
    "type": [Function],
  },
  Symbol(enzyme.__nodes__): Array [
    Object {
      "instance": null,
      "key": undefined,
      "nodeType": "class",
      "props": Object {
        "children": <div>
          <styled.h1>
            Esta página não é um requisito funcional para o teste, foi desenvolvida apenas para demonstrar a implementação do react-router-dom
          </styled.h1>
          <styled.div>
            <img
              alt="Gif jovem concordando"
              src="https://www.worldofbuzz.com/wp-content/uploads/2018/04/cant-tell-if-youre-eating-fresh-sashimi-heres-how-world-of-buzz-2.gif"
            />
          </styled.div>
        </div>,
      },
      "ref": null,
      "rendered": Object {
        "instance": null,
        "key": undefined,
        "nodeType": "host",
        "props": Object {
          "children": Array [
            <styled.h1>
              Esta página não é um requisito funcional para o teste, foi desenvolvida apenas para demonstrar a implementação do react-router-dom
            </styled.h1>,
            <styled.div>
              <img
                alt="Gif jovem concordando"
                src="https://www.worldofbuzz.com/wp-content/uploads/2018/04/cant-tell-if-youre-eating-fresh-sashimi-heres-how-world-of-buzz-2.gif"
              />
            </styled.div>,
          ],
        },
        "ref": null,
        "rendered": Array [
          Object {
            "instance": null,
            "key": undefined,
            "nodeType": "class",
            "props": Object {
              "children": "Esta página não é um requisito funcional para o teste, foi desenvolvida apenas para demonstrar a implementação do react-router-dom",
            },
            "ref": null,
            "rendered": "Esta página não é um requisito funcional para o teste, foi desenvolvida apenas para demonstrar a implementação do react-router-dom",
            "type": [Function],
          },
          Object {
            "instance": null,
            "key": undefined,
            "nodeType": "class",
            "props": Object {
              "children": <img
                alt="Gif jovem concordando"
                src="https://www.worldofbuzz.com/wp-content/uploads/2018/04/cant-tell-if-youre-eating-fresh-sashimi-heres-how-world-of-buzz-2.gif"
              />,
            },
            "ref": null,
            "rendered": Object {
              "instance": null,
              "key": undefined,
              "nodeType": "host",
              "props": Object {
                "alt": "Gif jovem concordando",
                "src": "https://www.worldofbuzz.com/wp-content/uploads/2018/04/cant-tell-if-youre-eating-fresh-sashimi-heres-how-world-of-buzz-2.gif",
              },
              "ref": null,
              "rendered": null,
              "type": "img",
            },
            "type": [Function],
          },
        ],
        "type": "div",
      },
      "type": [Function],
    },
  ],
  Symbol(enzyme.__options__): Object {
    "adapter": ReactSixteenAdapter {
      "options": Object {
        "enableComponentDidUpdateOnSetState": true,
      },
    },
    "context": Object {
      "__styled-components__": [Function],
      "__styled-components__next__": Object {
        "getTheme": [Function],
        "subscribe": [Function],
        "unsubscribe": [Function],
      },
    },
  },
}
`;

exports[`should render a default page with primary style 1`] = `
ShallowWrapper {
  "length": 1,
  Symbol(enzyme.__root__): [Circular],
  Symbol(enzyme.__unrendered__): <DefaultPage
    color="primary"
  />,
  Symbol(enzyme.__renderer__): Object {
    "batchedUpdates": [Function],
    "getNode": [Function],
    "render": [Function],
    "simulateEvent": [Function],
    "unmount": [Function],
  },
  Symbol(enzyme.__node__): Object {
    "instance": null,
    "key": undefined,
    "nodeType": "class",
    "props": Object {
      "children": <div>
        <styled.h1>
          Esta página não é um requisito funcional para o teste, foi desenvolvida apenas para demonstrar a implementação do react-router-dom
        </styled.h1>
        <styled.div>
          <img
            alt="Gif jovem concordando"
            src="https://www.worldofbuzz.com/wp-content/uploads/2018/04/cant-tell-if-youre-eating-fresh-sashimi-heres-how-world-of-buzz-2.gif"
          />
        </styled.div>
      </div>,
    },
    "ref": null,
    "rendered": Object {
      "instance": null,
      "key": undefined,
      "nodeType": "host",
      "props": Object {
        "children": Array [
          <styled.h1>
            Esta página não é um requisito funcional para o teste, foi desenvolvida apenas para demonstrar a implementação do react-router-dom
          </styled.h1>,
          <styled.div>
            <img
              alt="Gif jovem concordando"
              src="https://www.worldofbuzz.com/wp-content/uploads/2018/04/cant-tell-if-youre-eating-fresh-sashimi-heres-how-world-of-buzz-2.gif"
            />
          </styled.div>,
        ],
      },
      "ref": null,
      "rendered": Array [
        Object {
          "instance": null,
          "key": undefined,
          "nodeType": "class",
          "props": Object {
            "children": "Esta página não é um requisito funcional para o teste, foi desenvolvida apenas para demonstrar a implementação do react-router-dom",
          },
          "ref": null,
          "rendered": "Esta página não é um requisito funcional para o teste, foi desenvolvida apenas para demonstrar a implementação do react-router-dom",
          "type": [Function],
        },
        Object {
          "instance": null,
          "key": undefined,
          "nodeType": "class",
          "props": Object {
            "children": <img
              alt="Gif jovem concordando"
              src="https://www.worldofbuzz.com/wp-content/uploads/2018/04/cant-tell-if-youre-eating-fresh-sashimi-heres-how-world-of-buzz-2.gif"
            />,
          },
          "ref": null,
          "rendered": Object {
            "instance": null,
            "key": undefined,
            "nodeType": "host",
            "props": Object {
              "alt": "Gif jovem concordando",
              "src": "https://www.worldofbuzz.com/wp-content/uploads/2018/04/cant-tell-if-youre-eating-fresh-sashimi-heres-how-world-of-buzz-2.gif",
            },
            "ref": null,
            "rendered": null,
            "type": "img",
          },
          "type": [Function],
        },
      ],
      "type": "div",
    },
    "type": [Function],
  },
  Symbol(enzyme.__nodes__): Array [
    Object {
      "instance": null,
      "key": undefined,
      "nodeType": "class",
      "props": Object {
        "children": <div>
          <styled.h1>
            Esta página não é um requisito funcional para o teste, foi desenvolvida apenas para demonstrar a implementação do react-router-dom
          </styled.h1>
          <styled.div>
            <img
              alt="Gif jovem concordando"
              src="https://www.worldofbuzz.com/wp-content/uploads/2018/04/cant-tell-if-youre-eating-fresh-sashimi-heres-how-world-of-buzz-2.gif"
            />
          </styled.div>
        </div>,
      },
      "ref": null,
      "rendered": Object {
        "instance": null,
        "key": undefined,
        "nodeType": "host",
        "props": Object {
          "children": Array [
            <styled.h1>
              Esta página não é um requisito funcional para o teste, foi desenvolvida apenas para demonstrar a implementação do react-router-dom
            </styled.h1>,
            <styled.div>
              <img
                alt="Gif jovem concordando"
                src="https://www.worldofbuzz.com/wp-content/uploads/2018/04/cant-tell-if-youre-eating-fresh-sashimi-heres-how-world-of-buzz-2.gif"
              />
            </styled.div>,
          ],
        },
        "ref": null,
        "rendered": Array [
          Object {
            "instance": null,
            "key": undefined,
            "nodeType": "class",
            "props": Object {
              "children": "Esta página não é um requisito funcional para o teste, foi desenvolvida apenas para demonstrar a implementação do react-router-dom",
            },
            "ref": null,
            "rendered": "Esta página não é um requisito funcional para o teste, foi desenvolvida apenas para demonstrar a implementação do react-router-dom",
            "type": [Function],
          },
          Object {
            "instance": null,
            "key": undefined,
            "nodeType": "class",
            "props": Object {
              "children": <img
                alt="Gif jovem concordando"
                src="https://www.worldofbuzz.com/wp-content/uploads/2018/04/cant-tell-if-youre-eating-fresh-sashimi-heres-how-world-of-buzz-2.gif"
              />,
            },
            "ref": null,
            "rendered": Object {
              "instance": null,
              "key": undefined,
              "nodeType": "host",
              "props": Object {
                "alt": "Gif jovem concordando",
                "src": "https://www.worldofbuzz.com/wp-content/uploads/2018/04/cant-tell-if-youre-eating-fresh-sashimi-heres-how-world-of-buzz-2.gif",
              },
              "ref": null,
              "rendered": null,
              "type": "img",
            },
            "type": [Function],
          },
        ],
        "type": "div",
      },
      "type": [Function],
    },
  ],
  Symbol(enzyme.__options__): Object {
    "adapter": ReactSixteenAdapter {
      "options": Object {
        "enableComponentDidUpdateOnSetState": true,
      },
    },
    "context": Object {
      "__styled-components__": [Function],
      "__styled-components__next__": Object {
        "getTheme": [Function],
        "subscribe": [Function],
        "unsubscribe": [Function],
      },
    },
  },
}
`;
